{
	"dev": {
		"app_function": "api.app",
		"profile_name": "default",
		"project_name": "backend",
		"runtime": "python3.6",
		"s3_bucket": "zappa-cruikaeyz"
		"aws_region": "eu-central-1",
		"environment_variables": {
			"FLASK_ENV": "staging",
			"FLASK_DEBUG": "0"
		},
	},
}
